[
  {
    "category": 1,
    "img": "/assets/products/p_001.png",
    "id": 1,
    "name": "Букет 'Полевые цветы'",
    "text": "",
    "price": "2 510"
  },
  {
    "category": 1,
    "img": "/assets/products/p_002.png",
    "id": 2,
    "name": "Букет 'Полевые цветы'",
    "text": "",
    "price": "2 510"
  },
  {
    "category": 1,
    "img": "/assets/products/p_003.png",
    "id": 3,
    "name": "Букет 'Полевые цветы'",
    "text": "",
    "price": "2 510"
  },
  {
    "category": 1,
    "img": "/assets/products/p_004.png",
    "id": 4,
    "name": "Букет 'Полевые цветы'",
    "text": "",
    "price": "2 510"
  },
  {
    "category": 1,
    "img": "/assets/products/p_003.png",
    "id": 5,
    "name": "Букет 'Полевые цветы'",
    "text": "",
    "price": "2 510"
  },
  {
    "category": 1,
    "img": "/assets/products/p_004.png",
    "id": 6,
    "name": "Букет 'Полевые цветы'",
    "text": "",
    "price": "2 510"
  },
  {
    "category": 1,
    "img": "/assets/products/p_001.png",
    "id": 7,
    "name": "Букет 'Полевые цветы'",
    "text": "",
    "price": "2 510"
  },
  {
    "category": 1,
    "img": "/assets/products/p_002.png",
    "id": 8,
    "name": "Букет 'Полевые цветы'",
    "text": "",
    "price": "2 510"
  },
  {
    "category": 1,
    "img": "/assets/products/p_003.png",
    "id": 9,
    "name": "Букет 'Полевые цветы'",
    "text": "",
    "price": "2 510"
  },
  {
    "category": 1,
    "img": "/assets/products/p_003.png",
    "id": 10,
    "name": "Букет 'Полевые цветы'",
    "text": "",
    "price": "2 510"
  }
]
